%YAML 1.1
%TAG !u! tag:unity3d.com,2011:
--- !u!114 &11400000
MonoBehaviour:
  m_ObjectHideFlags: 0
  m_CorrespondingSourceObject: {fileID: 0}
  m_PrefabInstance: {fileID: 0}
  m_PrefabAsset: {fileID: 0}
  m_GameObject: {fileID: 0}
  m_Enabled: 1
  m_EditorHideFlags: 0
  m_Script: {fileID: 11500000, guid: 4000db60dcf94025a99126d9ae18e227, type: 3}
  m_Name: Shotgun
  m_EditorClassIdentifier: 
  Weapons:
  - {fileID: 11400000, guid: 824cd6a8624efd941b3bbecdd526ecef, type: 2}
  - {fileID: 11400000, guid: 2823e9152cec0b54ab13808ea7fdf588, type: 2}
  - {fileID: 11400000, guid: a6b88135e42df1147be901d684934a13, type: 2}
