%YAML 1.1
%TAG !u! tag:unity3d.com,2011:
--- !u!114 &11400000
MonoBehaviour:
  m_ObjectHideFlags: 0
  m_CorrespondingSourceObject: {fileID: 0}
  m_PrefabInstance: {fileID: 0}
  m_PrefabAsset: {fileID: 0}
  m_GameObject: {fileID: 0}
  m_Enabled: 1
  m_EditorHideFlags: 0
  m_Script: {fileID: 11500000, guid: c2baee6eb04e1b842a559283fa5fea13, type: 3}
  m_Name: wepSlow1
  m_EditorClassIdentifier: 
  projectiles:
  - direction: 90
    speed: 7
    translate: {x: 0, y: 0}
    go: {fileID: 5634035379520106554, guid: 13b94fe8a5288214ca5513f9721f5530, type: 3}
  fireRate: 0.5
