%YAML 1.1
%TAG !u! tag:unity3d.com,2011:
--- !u!114 &11400000
MonoBehaviour:
  m_ObjectHideFlags: 0
  m_CorrespondingSourceObject: {fileID: 0}
  m_PrefabInstance: {fileID: 0}
  m_PrefabAsset: {fileID: 0}
  m_GameObject: {fileID: 0}
  m_Enabled: 1
  m_EditorHideFlags: 0
  m_Script: {fileID: 11500000, guid: b46e68f154b945d4bd78329d2cc4c667, type: 3}
  m_Name: "BlastPhr\xF6g"
  m_EditorClassIdentifier: 
  Name: "Blastphr\xF6g"
  Description: "shotgun phr\xF6g"
  Cost: 50
  Portrait: {fileID: 7323268855018474270, guid: a8b8f9f7e78e0cf459f794df11cc2645, type: 3}
  WeaponCollection: {fileID: 11400000, guid: c651abccc90acec438bdc3d7d53ca9df, type: 2}
