%YAML 1.1
%TAG !u! tag:unity3d.com,2011:
--- !u!114 &11400000
MonoBehaviour:
  m_ObjectHideFlags: 0
  m_CorrespondingSourceObject: {fileID: 0}
  m_PrefabInstance: {fileID: 0}
  m_PrefabAsset: {fileID: 0}
  m_GameObject: {fileID: 0}
  m_Enabled: 1
  m_EditorHideFlags: 0
  m_Script: {fileID: 11500000, guid: 4000db60dcf94025a99126d9ae18e227, type: 3}
  m_Name: Boss
  m_EditorClassIdentifier: 
  Weapons:
  - {fileID: 11400000, guid: 9266ffeb64baa8c459ff7b834a676d0f, type: 2}
